<svg xmlns="http://www.w3.org/2000/svg" xmlns:xlink="http://www.w3.org/1999/xlink" width="29" height="29" viewBox="0 0 29 29">
  <defs>
    <clipPath id="clip-path">
      <rect id="Rectangle_1769" data-name="Rectangle 1769" width="29" height="29" transform="translate(821 482)" fill="#0172e3" stroke="#0172e3" stroke-width="1"/>
    </clipPath>
  </defs>
  <g id="icon_result_active" transform="translate(-821 -482)" clip-path="url(#clip-path)">
    <g id="Group_1864" data-name="Group 1864" transform="translate(6 5)">
      <g id="Rectangle_1770" data-name="Rectangle 1770" transform="translate(820 484)" fill="none" stroke="#0172e3" stroke-width="1.5">
        <rect width="5" height="18" rx="2.5" stroke="none"/>
        <rect x="0.75" y="0.75" width="3.5" height="16.5" rx="1.75" fill="none"/>
      </g>
      <g id="Rectangle_1771" data-name="Rectangle 1771" transform="translate(827 487)" fill="none" stroke="#0172e3" stroke-width="1.5">
        <rect width="5" height="15" rx="2.5" stroke="none"/>
        <rect x="0.75" y="0.75" width="3.5" height="13.5" rx="1.75" fill="none"/>
      </g>
      <g id="Rectangle_1772" data-name="Rectangle 1772" transform="translate(834 482)" fill="none" stroke="#0172e3" stroke-width="1.5">
        <rect width="5" height="20" rx="2.5" stroke="none"/>
        <rect x="0.75" y="0.75" width="3.5" height="18.5" rx="1.75" fill="none"/>
      </g>
    </g>
  </g>
</svg>
